SDG Data Analysis Tutorial
…
To gain an overview, we create a summary of the existing data by pulling the first line of data

sdg3.sum<- sdg3 %>% group_by(Indicator) %>% filter(row_number()==1)
sdg3.sum #when you run the command in your own code, you will see all the data

## # A tibble: 24 x 8
## # Groups:   Indicator [24]
##     Goal Target Indicator SeriesDescription  GeoAreaName TimePeriod  Value Units
##    <int> <fct>  <fct>     <fct>              <fct>            <int>  <dbl> <fct>
##  1     2 2.a    2.a.2     Total official fl~ Uganda            2000 1.27e2 CON_~
##  2     3 3.1    3.1.1     Maternal mortalit~ Uganda            2000 5.78e2 PER_~
##  3     3 3.3    3.3.5     Number of people ~ Uganda            2010 2.44e7 NUMB~
##  4     3 3.3    3.3.2     Tuberculosis inci~ Uganda            2000 2.76e2 PER_~
##  5     5 5.5    5.5.1     Number of seats i~ Uganda            2000 2.79e2 NUMB~
##  6     6 6.a    6.a.1     Total official de~ Uganda            2000 4.47e1 CON_~
##  7     7 7.2    7.2.1     Renewable energy ~ Uganda            2000 9.39e1 PERC~
##  8     7 7.3    7.3.1     Energy intensity ~ Uganda            2000 1.26e1 MJ_P~
##  9     7 7.a    7.a.1     International fin~ Uganda            2000 2.62e1 CON_~
## 10     8 8.1    8.1.1     Annual growth rat~ Uganda            2000 1.59e0 PERC~
## # ... with 14 more rows
…
